MODULOS ODOO 11


Gestión de ventas (ORIGINAL)

nombre carpeta: sale_management

Nota: al instalar este modulo se instala los siguientes modulos:

- Gestión de facturas - account_invoicing

----------------------------------------------------------------

Gestión de facturas (ORIGINAL)

nombre carpeta: account_invoicing


----------------------------------------------------------------

Almacen (ORIGINAL)

nombre carpeta: stock

----------------------------------------------------------------

CRM (ORIGINAL)

nombre carpeta: crm

Nota: al instalar este modulo se instala los siguientes modulos:

- Calendario - calendar

- Contacto - contacts
 

----------------------------------------------------------------

Directorio de contactos (ORIGINAL)

nombre carpeta: contacts
 

----------------------------------------------------------------

Calendario (ORIGINAL)

nombre carpeta: calendar
 

----------------------------------------------------------------

Gestión de compras (ORIGINAL)

nombre carpeta: purchase
 

----------------------------------------------------------------

Directorio de Empleados (ORIGINAL)

nombre carpeta: hr
 

----------------------------------------------------------------

Asistencias (ORIGINAL)

nombre carpeta: hr_attendance

Nota: al instalar este modulo se instala los siguientes modulos:

- Directorio de Empleados - hr
 

----------------------------------------------------------------

Proyecto (ORIGINAL)

nombre carpeta: project


----------------------------------------------------------------

Partes de horas (ORIGINAL)

nombre carpeta: hr_timesheet

Nota: al instalar este modulo se instala los siguientes modulos:

- Proyecto - project

- Directorio de Empleados - hr

----------------------------------------------------------------